{
  "itemEntries":
  [
    {
      "code":"332368181",
      "productPictureUrl":"//fgl.scene7.com/is/image/FGLSportsLtd/332368180_20_a",
      "productPageUrl":"https://www.sportchek.ca/categories/men/footwear/boots/casual-boots/product/mckinley-mens-rexal-boots-brown-332368180.html#332368180=332368181",
      "quantity":"1"
    }
  ]
}